{
    "name": "Contacts permission request",
    "identifier": "contactspermission",
    "description": {
        "es-ES": "",
        "en-US": ""
    },
    "documentation": {
        "es-ES": "http://resources.kingofapp.com/services/contactspermission/docs/es_ES.md",
        "en-US": "http://resources.kingofapp.com/services/contactspermission/docs/en_US.md"
    },
    "descriptionShort": {
        "es-ES": "Este complemento le permite solicitar al usuario el permiso de contactos.",
        "en-US": "This plugin allows you to ask the user for the contacts permission."
    },
    "icon": "room",
    "type": "A",
    "version": "1.0.0",
    "author": "KingOfApp",
    "category": ["others"],
    "price": 0,
    "subscription": false,
    "canContain": false,
    "platforms": ["android", "ios"],
    "vendor": {
        "contactspermission": "http://resources.kingofapp.com/services/contactspermission/service.js"
    },
    "scope": {
        "defoult": "asd"
    },
    "deps": ["cordova.plugins.diagnostic", "cordova.plugin.contacts"],
    "libs": [],
    "config": [],
    "configChanges": [
        {
            "type": "xml",
            "path": "widget/platform$name=android",
            "data": "<config-file target='AndroidManifest.xml' parent='/manifest' mode='merge'><uses-permission android:name='android.permission.READ_CONTACTS' /><uses-permission android:name='android.permission.WRITE_CONTACTS' /></config-file>"
        }
    ],
    "showOn": {
        "menu": true,
        "market": true,
        "dragDrop": true
    },
    "images": {
        "list": "http://resources.kingofapp.com/services/contactspermission/images/list.png",
        "screenshots": [],
        "popover": "http://resources.kingofapp.com/services/contactspermission/images/popover.png",
        "banner": "http://resources.kingofapp.com/services/contactspermission/images/banner.png",
        "logo": "http://resources.kingofapp.com/services/contactspermission/images/logo.png"
    }
}